INDEX VERSION 1.131+C:\Users\csgo\eclipse-workspace\.metadata\.plugins\org.eclipse.jdt.core
2276780105.index
4038318303.index
2382537826.index
386659800.index
3883098540.index
3612008892.index
1228360840.index
1255147686.index
3271193799.index
1525998303.index
322499198.index
2423542074.index
1526749196.index
275132865.index
4268249325.index
1734410583.index
3933804599.index
